…
*Note*: This should open up your browser.

***I used browseVignettes instead because I couldn’t read the vignettes
otherwise***

``` r
iris %>%
  as_tibble() %>%
  filter(Species == "setosa")
```

    ## # A tibble: 50 x 5
    ##    Sepal.Length Sepal.Width Petal.Length Petal.Width Species
    ##           <dbl>       <dbl>        <dbl>       <dbl> <fct>  
    ##  1          5.1         3.5          1.4         0.2 setosa 
    ##  2          4.9         3            1.4         0.2 setosa 
    ##  3          4.7         3.2          1.3         0.2 setosa 
    ##  4          4.6         3.1          1.5         0.2 setosa 
    ##  5          5           3.6          1.4         0.2 setosa 
    ##  6          5.4         3.9          1.7         0.4 setosa 
    ##  7          4.6         3.4          1.4         0.3 setosa 
    ##  8          5           3.4          1.5         0.2 setosa 
    ##  9          4.4         2.9          1.4         0.2 setosa 
    ## 10          4.9         3.1          1.5         0.1 setosa 
    ## # … with 40 more rows
…
Sometimes we’ll be working with a function, but we won’t *quite* know
how to get it to do what we need. In this case, consulting the
function’s documentation can be *extremely* helpful.

**q4** Use your knowledge of documentation lookup to answer the
following question: How could we `filter` the `iris` dataset to return
only those rows with `Sepal.Length` between `5.1` and `6.4`?

``` r
iris %>%
  as_tibble() %>%
  filter(between(Sepal.Length, 5.1, 6.4))
```

    ## # A tibble: 83 x 5
    ##    Sepal.Length Sepal.Width Petal.Length Petal.Width Species
    ##           <dbl>       <dbl>        <dbl>       <dbl> <fct>  
    ##  1          5.1         3.5          1.4         0.2 setosa 
    ##  2          5.4         3.9          1.7         0.4 setosa 
    ##  3          5.4         3.7          1.5         0.2 setosa 
    ##  4          5.8         4            1.2         0.2 setosa 
    ##  5          5.7         4.4          1.5         0.4 setosa 
    ##  6          5.4         3.9          1.3         0.4 setosa 
    ##  7          5.1         3.5          1.4         0.3 setosa 
    ##  8          5.7         3.8          1.7         0.3 setosa 
    ##  9          5.1         3.8          1.5         0.3 setosa 
    ## 10          5.4         3.4          1.7         0.2 setosa 
    ## # … with 73 more rows
…
