…
**q1** Select all the variables whose name ends with `_time`.

``` r
df_q1 <- select(flights, ends_with("_time"))
df_q1
```

    ## # A tibble: 336,776 x 5
    ##    dep_time sched_dep_time arr_time sched_arr_time air_time
    ##       <int>          <int>    <int>          <int>    <dbl>
    ##  1      517            515      830            819      227
    ##  2      533            529      850            830      227
    ##  3      542            540      923            850      160
    ##  4      544            545     1004           1022      183
    ##  5      554            600      812            837      116
    ##  6      554            558      740            728      150
    ##  7      555            600      913            854      158
    ##  8      557            600      709            723       53
    ##  9      557            600      838            846      140
    ## 10      558            600      753            745      138
    ## # … with 336,766 more rows
…
    ## [1] "Nice!"

**q2** Re-arrange the columns to place `dest, origin, carrier` at the
front, but retain all other columns.

*Hint*: The function `everything()` will be useful\!

``` r
df_q2 <- flights %>% select(dest, origin, carrier, everything())
df_q2
```

    ## # A tibble: 336,776 x 19
    ##    dest  origin carrier  year month   day dep_time sched_dep_time dep_delay
    ##    <chr> <chr>  <chr>   <int> <int> <int>    <int>          <int>     <dbl>
    ##  1 IAH   EWR    UA       2013     1     1      517            515         2
    ##  2 IAH   LGA    UA       2013     1     1      533            529         4
    ##  3 MIA   JFK    AA       2013     1     1      542            540         2
    ##  4 BQN   JFK    B6       2013     1     1      544            545        -1
    ##  5 ATL   LGA    DL       2013     1     1      554            600        -6
    ##  6 ORD   EWR    UA       2013     1     1      554            558        -4
    ##  7 FLL   EWR    B6       2013     1     1      555            600        -5
    ##  8 IAD   LGA    EV       2013     1     1      557            600        -3
    ##  9 MCO   JFK    B6       2013     1     1      557            600        -3
    ## 10 ORD   LGA    AA       2013     1     1      558            600        -2
    ## # … with 336,766 more rows, and 10 more variables: arr_time <int>,
    ## #   sched_arr_time <int>, arr_delay <dbl>, flight <int>, tailnum <chr>,
    ## #   air_time <dbl>, distance <dbl>, hour <dbl>, minute <dbl>, time_hour <dttm>
…
**q3** Fix the following code. What is the mistake here? What is the
code trying to accomplish?

``` r
# task-begin
## flights %>% filter(dest = "BOS") # Uncomment and run to see error
# task-end

flights %>% filter(dest == "BOS")
```

    ## # A tibble: 15,508 x 19
    ##     year month   day dep_time sched_dep_time dep_delay arr_time sched_arr_time
    ##    <int> <int> <int>    <int>          <int>     <dbl>    <int>          <int>
    ##  1  2013     1     1      559            559         0      702            706
    ##  2  2013     1     1      639            640        -1      739            749
    ##  3  2013     1     1      801            805        -4      900            919
    ##  4  2013     1     1      803            810        -7      903            925
    ##  5  2013     1     1      820            830       -10      940            954
    ##  6  2013     1     1      923            919         4     1026           1030
    ##  7  2013     1     1      957            733       144     1056            853
    ##  8  2013     1     1     1033           1017        16     1130           1136
    ##  9  2013     1     1     1154           1200        -6     1253           1306
    ## 10  2013     1     1     1237           1245        -8     1340           1350
    ## # … with 15,498 more rows, and 11 more variables: arr_delay <dbl>,
    ## #   carrier <chr>, flight <int>, tailnum <chr>, origin <chr>, dest <chr>,
    ## #   air_time <dbl>, distance <dbl>, hour <dbl>, minute <dbl>, time_hour <dttm>
…
    ## # A tibble: 1 x 19
    ##    year month   day dep_time sched_dep_time dep_delay arr_time sched_arr_time
    ##   <int> <int> <int>    <int>          <int>     <dbl>    <int>          <int>
    ## 1  2013     7    27       NA            106        NA       NA            245
    ## # … with 11 more variables: arr_delay <dbl>, carrier <chr>, flight <int>,
    ## #   tailnum <chr>, origin <chr>, dest <chr>, air_time <dbl>, distance <dbl>,
    ## #   hour <dbl>, minute <dbl>, time_hour <dttm>

``` r
# task-end

flights %>% filter(dest == "BOS")
```

    ## # A tibble: 15,508 x 19
    ##     year month   day dep_time sched_dep_time dep_delay arr_time sched_arr_time
    ##    <int> <int> <int>    <int>          <int>     <dbl>    <int>          <int>
    ##  1  2013     1     1      559            559         0      702            706
    ##  2  2013     1     1      639            640        -1      739            749
    ##  3  2013     1     1      801            805        -4      900            919
    ##  4  2013     1     1      803            810        -7      903            925
    ##  5  2013     1     1      820            830       -10      940            954
    ##  6  2013     1     1      923            919         4     1026           1030
    ##  7  2013     1     1      957            733       144     1056            853
    ##  8  2013     1     1     1033           1017        16     1130           1136
    ##  9  2013     1     1     1154           1200        -6     1253           1306
    ## 10  2013     1     1     1237           1245        -8     1340           1350
    ## # … with 15,498 more rows, and 11 more variables: arr_delay <dbl>,
    ## #   carrier <chr>, flight <int>, tailnum <chr>, origin <chr>, dest <chr>,
    ## #   air_time <dbl>, distance <dbl>, hour <dbl>, minute <dbl>, time_hour <dttm>
…
    ## # A tibble: 1 x 19
    ##    year month   day dep_time sched_dep_time dep_delay arr_time sched_arr_time
    ##   <int> <int> <int>    <int>          <int>     <dbl>    <int>          <int>
    ## 1  2013     7    27       NA            106        NA       NA            245
    ## # … with 11 more variables: arr_delay <dbl>, carrier <chr>, flight <int>,
    ## #   tailnum <chr>, origin <chr>, dest <chr>, air_time <dbl>, distance <dbl>,
    ## #   hour <dbl>, minute <dbl>, time_hour <dttm>

``` r
df_q5b <- filter(flights, origin == "JFK" | origin == "LGA" | origin == "EWR")
df_q5b
```

    ## # A tibble: 336,776 x 19
    ##     year month   day dep_time sched_dep_time dep_delay arr_time sched_arr_time
    ##    <int> <int> <int>    <int>          <int>     <dbl>    <int>          <int>
    ##  1  2013     1     1      517            515         2      830            819
    ##  2  2013     1     1      533            529         4      850            830
    ##  3  2013     1     1      542            540         2      923            850
    ##  4  2013     1     1      544            545        -1     1004           1022
    ##  5  2013     1     1      554            600        -6      812            837
    ##  6  2013     1     1      554            558        -4      740            728
    ##  7  2013     1     1      555            600        -5      913            854
    ##  8  2013     1     1      557            600        -3      709            723
    ##  9  2013     1     1      557            600        -3      838            846
    ## 10  2013     1     1      558            600        -2      753            745
    ## # … with 336,766 more rows, and 11 more variables: arr_delay <dbl>,
    ## #   carrier <chr>, flight <int>, tailnum <chr>, origin <chr>, dest <chr>,
    ## #   air_time <dbl>, distance <dbl>, hour <dbl>, minute <dbl>, time_hour <dttm>
…
**q6** Sort the flights in *descending* order by their `air_time`. Bring
`air_time, dest` to the front. What can you tell about the longest
flights?

``` r
# task-begin
## df_q6 <- TODO: Your code here!
# task-end
df_q6 <- flights %>% select(air_time, dest, everything()) %>% arrange(desc(air_time))
df_q6
```

    ## # A tibble: 336,776 x 19
    ##    air_time dest   year month   day dep_time sched_dep_time dep_delay arr_time
    ##       <dbl> <chr> <int> <int> <int>    <int>          <int>     <dbl>    <int>
    ##  1      695 HNL    2013     3    17     1337           1335         2     1937
    ##  2      691 HNL    2013     2     6      853            900        -7     1542
    ##  3      686 HNL    2013     3    15     1001           1000         1     1551
    ##  4      686 HNL    2013     3    17     1006           1000         6     1607
    ##  5      683 HNL    2013     3    16     1001           1000         1     1544
    ##  6      679 HNL    2013     2     5      900            900         0     1555
    ##  7      676 HNL    2013    11    12      936            930         6     1630
    ##  8      676 HNL    2013     3    14      958           1000        -2     1542
    ##  9      675 HNL    2013    11    20     1006           1000         6     1639
    ## 10      671 HNL    2013     3    15     1342           1335         7     1924
    ## # … with 336,766 more rows, and 10 more variables: sched_arr_time <int>,
    ## #   arr_delay <dbl>, carrier <chr>, flight <int>, tailnum <chr>, origin <chr>,
    ## #   distance <dbl>, hour <dbl>, minute <dbl>, time_hour <dttm>
…
